Store Data About Rows • keyholder
…
library(dplyr)
library(keyholder)
mtcars_tbl <- mtcars %>% as_tibble()

Track rows without modifying data:

mtcars_tbl_id <- mtcars_tbl %>%
  # Creates a key '.id' with row index
  use_id() %>%
  filter(vs == 1, gear == 4)

mtcars_tbl_id
#> # A keyed object. Keys: .id 
#> # A tibble: 10 x 11
#>     mpg   cyl  disp    hp  drat    wt  qsec    vs    am  gear  carb
#>   <dbl> <dbl> <dbl> <dbl> <dbl> <dbl> <dbl> <dbl> <dbl> <dbl> <dbl>
#> 1  22.8     4  108     93  3.85  2.32  18.6     1     1     4     1
#> 2  24.4     4  147.    62  3.69  3.19  20       1     0     4     2
#> 3  22.8     4  141.    95  3.92  3.15  22.9     1     0     4     2
#> # … with 7 more rows
…
# Restore with recomputing groups
mtcars_tbl_keyed %>%
  restore_keys_all() %>%
  all.equal(mtcars_tbl)
#> [1] TRUE

# Restore with renaming
mtcars_tbl_keyed %>%
  restore_keys_at("vs", .funs = list(~ paste0(., "_old")))
#> # A keyed object. Keys: vs, am, gear 
#> # A tibble: 32 x 12
#> # Groups:   vs [2]
#>     mpg   cyl  disp    hp  drat    wt  qsec    vs    am  gear  carb vs_old
#>   <dbl> <dbl> <dbl> <dbl> <dbl> <dbl> <dbl> <dbl> <dbl> <dbl> <dbl>  <dbl>
#> 1  21       6   160   110  3.9   2.62  16.5     1     1     5     4      0
#> 2  21       6   160   110  3.9   2.88  17.0     1     1     5     4      0
#> 3  22.8     4   108    93  3.85  2.32  18.6     1     1     5     1      1
#> # … with 29 more rows

As a special case of previous usage one can also hide columns for convenient use of dplyr’s *_if scoped variants of verbs:

# Restored key goes to the end of the tibble
mtcars_tbl %>%
  key_by(mpg, .exclude = TRUE) %>%
  mutate_if(is.numeric, round, digits = 0) %>%
  restore_keys_all()
#> # A keyed object. Keys: mpg 
#> # A tibble: 32 x 11
#>     cyl  disp    hp  drat    wt  qsec    vs    am  gear  carb   mpg
#>   <dbl> <dbl> <dbl> <dbl> <dbl> <dbl> <dbl> <dbl> <dbl> <dbl> <dbl>
#> 1     6   160   110     4     3    16     0     1     4     4  21  
#> 2     6   160   110     4     3    17     0     1     4     4  21  
#> 3     4   108    93     4     2    19     1     1     4     1  22.8
#> # … with 29 more rows
…
