Get keys — keys-get • keyholder
…
    Examples

keys(mtcars)
#> # A tibble: 32 × 0

raw_keys(mtcars)
#> NULL

has_keys(mtcars)
#> [1] FALSE

df <- key_by(mtcars, vs, am)
keys(df)
#> # A tibble: 32 × 2
#>       vs    am
#>    <dbl> <dbl>
#>  1     0     1
#>  2     0     1
#>  3     1     1
#>  4     1     0
#>  5     0     0
#>  6     1     0
#>  7     0     0
#>  8     1     0
#>  9     1     0
#> 10     1     0
#> # … with 22 more rows
…
